early_colleges[1,6] <- "Congregational"
early_colleges

# A tibble: 65 x 6
   college                original_name         city          state established sponsorship
   <chr>                  <chr>                 <chr>         <chr>       <int> <chr>
 1 Harvard                NA                    Cambridge     MA           1636 Congregational
 2 William and Mary       NA                    Williamsburg  VA           1693 Anglican
 3 Yale                   NA                    New Haven     CT           1701 Congregational
 4 Pennsylvania, Univ. of NA                    Philadelphia  PA           1740 Nondenominational
 5 Princeton              College of New Jersey Princeton     NJ           1746 Presbyterian
 6 Columbia               King's College        New York      NY           1754 Anglican
 7 Brown                  NA                    Providence    RI           1765 Baptist
 8 Rutgers                Queen's College       New Brunswick NJ           1766 Dutch Reformed
 9 Dartmouth              NA                    Hanover       NH           1769 Congregational
10 Charleston, Coll. Of   NA                    Charleston    SC           1770 Anglican
# ... with 55 more rows
