early_colleges_with_location <- early_colleges%>%
    mutate(location=paste(city, state, sep=","))

# View the new tibble with the location added
early_colleges_with_location

## # A tibble: 65 x 7
##    college                original_name         city          state
##    <chr>                  <chr>                 <chr>         <chr>
##  1 Harvard                <NA>                  Cambridge     MA
##  2 William and Mary       <NA>                  Williamsburg  VA
##  3 Yale                   <NA>                  New Haven     CT
##  4 Pennsylvania, Univ. of <NA>                  Philadelphia  PA
##  5 Princeton              College of New Jersey Princeton     NJ
##  6 Columbia               King's College        New York      NY
##  7 Brown                  <NA>                  Providence    RI
##  8 Rutgers                Queen's College       New Brunswick NJ
##  9 Dartmouth              <NA>                  Hanover       NH
## 10 Charleston, Coll. Of   <NA>                  Charleston    SC
##    established sponsorship       location
##          <int> <chr>             <chr>
##  1        1636 Congregational    Cambridge,MA
##  2        1693 Anglican          Williamsburg,VA
##  3        1701 Congregational    New Haven,CT
##  4        1740 Nondenominational Philadelphia,PA
##  5        1746 Presbyterian      Princeton,NJ
##  6        1754 Anglican          New York,NY
##  7        1765 Baptist           Providence,RI
##  8        1766 Dutch Reformed    New Brunswick,NJ
##  9        1769 Congregational    Hanover,NH
## 10        1770 Anglican          Charleston,SC
## # ... with 55 more rows
