# Make sure you have installed the historydata package and loaded it before this

data(early_colleges)
early_colleges

## # A tibble: 65 x 6
##    college                original_name         city          state
##    <chr>                  <chr>                 <chr>         <chr>
##  1 Harvard                <NA>                  Cambridge     MA
##  2 William and Mary       <NA>                  Williamsburg  VA
##  3 Yale                   <NA>                  New Haven     CT
##  4 Pennsylvania, Univ. of <NA>                  Philadelphia  PA
##  5 Princeton              College of New Jersey Princeton     NJ
##  6 Columbia               King's College        New York      NY
##  7 Brown                  <NA>                  Providence    RI
##  8 Rutgers                Queen's College       New Brunswick NJ
##  9 Dartmouth              <NA>                  Hanover       NH
## 10 Charleston, Coll. Of   <NA>                  Charleston    SC
##    established sponsorship
##          <int> <chr>
##  1        1636 Congregational; after 1805 Unitarian
##  2        1693 Anglican
##  3        1701 Congregational
##  4        1740 Nondenominational
##  5        1746 Presbyterian
##  6        1754 Anglican
##  7        1765 Baptist
##  8        1766 Dutch Reformed
##  9        1769 Congregational
## 10        1770 Anglican
## # ... with 55 more rows
