early_colleges%>%mutate(location=paste(city,state,sep=","))

# A tibble: 65 x 7
   college                original_name         city          state established sponsorship       location
   <chr>                  <chr>                 <chr>         <chr>       <int> <chr>             <chr>
 1 Harvard                NA                    Cambridge     MA           1636 Congregational    Cambridge,MA
 2 William and Mary       NA                    Williamsburg  VA           1693 Anglican          Williamsburg,VA
 3 Yale                   NA                    New Haven     CT           1701 Congregational    New Haven,CT
 4 Pennsylvania, Univ. of NA                    Philadelphia  PA           1740 Nondenominational Philadelphia,PA
 5 Princeton              College of New Jersey Princeton     NJ           1746 Presbyterian      Princeton,NJ
 6 Columbia               King's College        New York      NY           1754 Anglican          New York,NY
 7 Brown                  NA                    Providence    RI           1765 Baptist           Providence,RI
 8 Rutgers                Queen's College       New Brunswick NJ           1766 Dutch Reformed    New Brunswick,NJ
 9 Dartmouth              NA                    Hanover       NH           1769 Congregational    Hanover,NH
10 Charleston, Coll. Of   NA                    Charleston    SC           1770 Anglican          Charleston,SC
# ... with 55 more rows
