early_colleges%>%
    select(-original_name)

    # A tibble: 65 x 5
       college                city          state established sponsorship
       <chr>                  <chr>         <chr>       <int> <chr>
     1 Harvard                Cambridge     MA           1636 Congregational
     2 William and Mary       Williamsburg  VA           1693 Anglican
     3 Yale                   New Haven     CT           1701 Congregational
     4 Pennsylvania, Univ. of Philadelphia  PA           1740 Nondenominational
     5 Princeton              Princeton     NJ           1746 Presbyterian
     6 Columbia               New York      NY           1754 Anglican
     7 Brown                  Providence    RI           1765 Baptist
     8 Rutgers                New Brunswick NJ           1766 Dutch Reformed
     9 Dartmouth              Hanover       NH           1769 Congregational
    10 Charleston, Coll. Of   Charleston    SC           1770 Anglican
    # ... with 55 more rows
