# A tibble: 71 × 2
         word count
        <chr> <dbl>
1           a     1
2       abuse     2
3     achieve     1
4       again     1
5          an     1
6         and     4
7  appreciate     1
8    approach     1
9         are     2
10         at     1
# ... with 61 more rows
