# A tibble: 77 x 2

palavra contagem

<chr> <dbl>

1 que 5.

2 a  4.

3 ano 3.

4 e  3.

5 os 3.

6 as 2.

7 da 2.

8 de 2.

9 este 2.

10 o 2.

# … with 67 more rows
