# A tibble: 71 × 2
    word count
   <chr> <dbl>
1    and     4
2      i     3
3    the     3
4     we     3
5   year     3
6  abuse     2
7    are     2
8    for     2
9     so     2
10  that     2
# ... with 61 more rows
