# A tibble: 236 × 4
           president  year       party sotu_type
               <chr> <int>       <chr>     <chr>
1  George Washington  1790 Nonpartisan    speech
2  George Washington  1790 Nonpartisan    speech
3  George Washington  1791 Nonpartisan    speech
4  George Washington  1792 Nonpartisan    speech
5  George Washington  1793 Nonpartisan    speech
6  George Washington  1794 Nonpartisan    speech
7  George Washington  1795 Nonpartisan    speech
8  George Washington  1796 Nonpartisan    speech
9         John Adams  1797  Federalist    speech
10        John Adams  1798  Federalist    speech
# ... with 226 more rows
