# A tibble: 1,590 × 2
    word count
   <chr> <dbl>
1    the   281
2     to   209
3    and   189
4     of   148
5   that   125
6     we   124
7      a   120
8     in   105
9    our    96
10    is    72
# ... with 1,580 more rows
