# A tibble: 77 x 2

palavra contagem

<chr> <dbl>

1 a 4.

2 ambos 1.

3 ano 3.

4 ao 1.

5 aprecio 1.

6 aprovar 1.

7 as 2.

8 às 1.

9 assim 1.

10 assistência 1.

# ... with 67 more rows
