   # A tibble: 70 x 2
   palabra   recuento
   <chr>        <dbl>
 1 a               4.
 2 adicción        1.
 3 adoptaron       1.
 4 año             3.
 5 aprecio         1.
 6 aprobar         1.
 7 así             2.
 8 aún             1.
 9 ayudar          1.
10 bajas           1.
# ... with 60 more rows
