# A tibble: 70 x 2
   palabra recuento
   <chr>      <dbl>
 1 de            7.
 2 que           6.
 3 la            5.
 4 a             4.
 5 año           3.
 6 los           3.
 7 para          3.
 8 y             3.
 9 así           2.
10 como          2.
# ... with 60 more rows
