early_colleges %>%
   arrange(desc(established))

# A tibble: 65 x 6
   college               original_name city        state established sponsorship
   <chr>                 <chr>         <chr>       <chr>       <int> <chr>
 1 Wisconsin, Univ. of   NA            Madison     WI           1848 Secular
 2 Earlham               NA            Richmond    IN           1847 Quaker
 3 Beloit                NA            Beloit      WI           1846 Congregational
 4 Bucknell              NA            Lewisburg   PA           1846 Baptist
 5 Grinnell              NA            Grinnell    IA           1846 Congregational
 6 Mount Union           NA            Alliance    OH           1846 Methodist
 7 Louisiana, Univ. of   NA            New Orleans LA           1845 Secular
 8 U.S. Naval Academy    NA            Annapolis   MD           1845 Secular
 9 Mississipps, Univ. of NA            Oxford      MI           1844 Secular
10 Holy Cross            NA            Worchester  MA           1843 Roman Catholic
# ... with 55 more rows
